#include<stdio.h>
#include<math.h>
int main()
{
    int i,n;
    float sum=0,d;
    printf("enter the value of n where n is the denominator of the last term without power\n");
    scanf("%d",&n);
    printf("the series is:\n");
    for(i=1;i<=n;i++)
    {
        printf(" 1/%d*%d",i,i);
    }
    for(i=1;i<=n;i++)
    {
        d=1/pow(i,2);
        sum=sum+d;
    }
    printf("\n");
    printf("the sum of the given series is=%f\n",sum);
    return 0;
}