#include<stdio.h>
int main()
{
    int i,n,sum=0;
    float avg=0;
    printf("enter the no of elements\n");
    scanf("%d",&n);
    int a[n];
    printf("enter the array elements\n");
    for(i=0;i<n;i++)
    {
        scanf("%d",&a[i]);
        sum=sum+a[i];
    }
    printf("your array is\n");
     for(i=0;i<n;i++)
    {
        printf(" %d",a[i]);
    }
    printf("\n");
    avg=sum/n;
    printf("the avg of the elements of the array is %f\n",avg);
}