#include<stdio.h>
int main()
{
    int a;
    printf("enter the marks out of 100\n");
    scanf(" %d",&a);
    if(a>100)
    {
    printf("put marks out of 100\n");
    scanf(" %d",&a);
    }
    if(a<=100)
    switch(a/10)
    {
        case 10:
        case 9:
            printf("your grade is A\n");
            break;
        case 8:
        case 7:
            printf("your grade is B\n");
            break;
        case 6:
            printf("your grade is C\n");
            break;
        case 5:
        case 4:
            printf("your grade is D\n");
            break;
        default:
            printf("fail\n");
            break;
    }
    return 0;
}