#include<stdio.h>
int main()
{
    int n,original,reverse=0,r;
    printf("enter the no\n");
    scanf("%d",&n);
    original=n;
    while(n!=0)
    {
        r=n%10;
        reverse=reverse*10+r;
        n=n/10;
    }
    if(original==reverse)

        printf("palindrome\n");

    else
        printf("not a palindrome\n");
    
return 0;
}