#include<stdio.h>
int main()
{
int n,i,c=0;
printf("Enter a number\n");
scanf("%d",&n);
if(n==1)
   { printf("prime\n");}
    if(n==0)
        {printf("neither prime nor composite\n");}
for(i=1;i<=n;i++)
{
  if(n%i==0)
  c++;
  }
  if(c==2)
  printf("%d is prime",n);
  else
  printf("%d is composite",n);
  return 0;
  }