#include <stdio.h>
#include<math.h>
int main()
{
    int a,b,c;
    float d,r1,r2;
    printf("enter the value of a,b,c\n");
    scanf("%d%d%d",&a,&b,&c);
    d=b*b-4*a*c;
    if(d>=0)
       { r1=(-b+sqrt(b*b-4*a*c))/2*a;
        r2=(-b-sqrt(b*b-4*a*c))/2*a;
       printf("the real roots are %f and %f",r1,r2);}
       if(d<0)
           printf("eqn does not have real roots\n");
return 0;
}